-- Merging decision tree log ---
manifest
ADDED from E:\flutter_windows_1.22.4-stable\flutter\.pub-cache\hosted\pub.dartlang.org\social_share-2.0.6\android\src\main\AndroidManifest.xml:1:1-4:12
INJECTED from E:\flutter_windows_1.22.4-stable\flutter\.pub-cache\hosted\pub.dartlang.org\social_share-2.0.6\android\src\main\AndroidManifest.xml:1:1-4:12
INJECTED from E:\flutter_windows_1.22.4-stable\flutter\.pub-cache\hosted\pub.dartlang.org\social_share-2.0.6\android\src\main\AndroidManifest.xml:1:1-4:12
	package
		ADDED from E:\flutter_windows_1.22.4-stable\flutter\.pub-cache\hosted\pub.dartlang.org\social_share-2.0.6\android\src\main\AndroidManifest.xml:3:5-47
		INJECTED from E:\flutter_windows_1.22.4-stable\flutter\.pub-cache\hosted\pub.dartlang.org\social_share-2.0.6\android\src\main\AndroidManifest.xml
		INJECTED from E:\flutter_windows_1.22.4-stable\flutter\.pub-cache\hosted\pub.dartlang.org\social_share-2.0.6\android\src\main\AndroidManifest.xml
	xmlns:tools
		ADDED from E:\flutter_windows_1.22.4-stable\flutter\.pub-cache\hosted\pub.dartlang.org\social_share-2.0.6\android\src\main\AndroidManifest.xml:2:5-51
	xmlns:android
		ADDED from E:\flutter_windows_1.22.4-stable\flutter\.pub-cache\hosted\pub.dartlang.org\social_share-2.0.6\android\src\main\AndroidManifest.xml:1:11-69
uses-sdk
INJECTED from E:\flutter_windows_1.22.4-stable\flutter\.pub-cache\hosted\pub.dartlang.org\social_share-2.0.6\android\src\main\AndroidManifest.xml reason: use-sdk injection requested
INJECTED from E:\flutter_windows_1.22.4-stable\flutter\.pub-cache\hosted\pub.dartlang.org\social_share-2.0.6\android\src\main\AndroidManifest.xml
INJECTED from E:\flutter_windows_1.22.4-stable\flutter\.pub-cache\hosted\pub.dartlang.org\social_share-2.0.6\android\src\main\AndroidManifest.xml
	android:minSdkVersion
		INJECTED from E:\flutter_windows_1.22.4-stable\flutter\.pub-cache\hosted\pub.dartlang.org\social_share-2.0.6\android\src\main\AndroidManifest.xml
		ADDED from E:\flutter_windows_1.22.4-stable\flutter\.pub-cache\hosted\pub.dartlang.org\social_share-2.0.6\android\src\main\AndroidManifest.xml
		INJECTED from E:\flutter_windows_1.22.4-stable\flutter\.pub-cache\hosted\pub.dartlang.org\social_share-2.0.6\android\src\main\AndroidManifest.xml
